precision,recall,f1,roc_auc,n_components
0.7188075082811926,0.23440792246101982,0.3532103246622303,0.7193594313339888,1
0.6760392385392385,0.3325168563000422,0.44388462308797844,0.79410008363118,2
0.6845100914868357,0.48972819216182045,0.5703668812477103,0.853930763007705,3
0.6757035125012654,0.48675200168563,0.5650064073571536,0.8540872463100831,4
0.7657560137457043,0.6262378845343447,0.6872040948094069,0.9164492971339087,6
0.7881718911222005,0.6589759797724399,0.7163588057411401,0.9243196349882682,8
0.8083986928104575,0.6737515802781289,0.7339969604120548,0.9351593349565327,11
0.8507924016875424,0.8101822587442057,0.8293483388794661,0.9672082533439466,16
0.876877264085417,0.842709650231774,0.8590644040736652,0.9743178791236805,23
0.8949988814395066,0.8367572692793931,0.8647370872530047,0.9761646259618235,32
0.9000125691302162,0.8278813737884535,0.862427880742623,0.9776901146124352,45
0.9034376481744903,0.8695217024863041,0.8853391169048676,0.9736064288055438,64
0.8874373818879923,0.8398914875684788,0.862701368763839,0.962434252625993,91
0.8879421477552318,0.8103402865571008,0.8454827430533385,0.9551846454194045,128
0.8875243664717348,0.7984091866835229,0.8399535998592601,0.9531258129002721,181
0.8752658344891354,0.7715971344289928,0.8190835886311479,0.9424129253744543,256
0.8758775946275946,0.7033554572271387,0.7795323659361818,0.9340194861950023,362
0.8144282360831655,0.46291613990729036,0.5890392833988276,0.863961302045127,512
