precision,recall,f1,roc_auc,n_components
0.5020411969231319,0.2848978086809945,0.3633039606729062,0.6601754547689281,1
0.5054405437425952,0.3739201432785504,0.42970011041065637,0.7276506076592115,2
0.6167508417508417,0.4866203118415508,0.5439888018652611,0.8168466590449137,3
0.6396895787139689,0.5075326590813316,0.5650748985336614,0.8300907554379777,4
0.7922233922233923,0.7389380530973452,0.7642303418534282,0.9257064428524607,6
0.7992322492322491,0.7299831436999579,0.7629239740537707,0.9310697149776551,8
0.8134254162079205,0.7239780868099452,0.7660149993814344,0.9344960896245311,11
0.8703630363036304,0.7775231774125579,0.8213157350813476,0.9612362002049809,16
0.877748657218663,0.7892699115044248,0.831156280965006,0.9647233797922096,23
0.8959783733475387,0.7922724399494312,0.8408994849600749,0.9650048058664087,32
0.8854252348311755,0.8011483354403709,0.8411116988969219,0.9676509588321288,45
0.8992857624149316,0.7981194690265486,0.8456241125371169,0.9713582718130408,64
0.9148109965635739,0.7981458069953645,0.8524833209785027,0.969881638468782,91
0.892706968743835,0.7684892541087232,0.8258158979694062,0.9664312019738519,128
0.9107513731601135,0.7566898440792246,0.8262773051064602,0.9631692770520205,181
0.8974900304949566,0.7536346396965866,0.8187126862780009,0.9637736684043223,256
0.8795202498517951,0.7359355246523388,0.8012136772085424,0.9593587257365527,362
0.9048580403527849,0.7565844922039613,0.82370444810187,0.9756802186896828,512
